[
{"city":"Manaus",
"mascot":"Manatees",
"short":"MAN",
"homeText":"FFFFFF",
"homeMain":"FB4F14",
"homeSecondary":"5DFFFD",
"awayText":"FB4F14",
"awayMain":"FFFFFF",
"awaySecondary":"5DFFFD"},
{"city":"Belém",
"mascot":"Forest Rangers",
"short":"BEL",
"homeText":"000000",
"homeMain":"59A518",
"homeSecondary":"FF0000",
"awayText":"59A518",
"awayMain":"FFFFFF",
"awaySecondary":"FF0000"},
{"city":"Maranhão",
"mascot":"Space Rockets",
"short":"MA",
"homeText":"FFF800",
"homeMain":"0085CA",
"homeSecondary":"000000",
"awayText":"0085CA",
"awayMain":"FFFFFF",
"awaySecondary":"000000"},
{"city":"Teresina",
"mascot":"Cangaceiros",
"short":"TER",
"homeText":"FFFFFF",
"homeMain":"A52A2A",
"homeSecondary":"C2B280",
"awayText":"A52A2A",
"awayMain":"FFFFFF",
"awaySecondary":"C2B280"},
{"city":"Belo Horizonte",
"mascot":"Miners",
"short":"BH",
"homeText":"000000",
"homeMain":"D3BC8D",
"homeSecondary":"A19D94",
"awayText":"D3BC8D",
"awayMain":"FFFFFF",
"awaySecondary":"A19D94"},
{"city":"Brasília",
"mascot":"Nationals",
"short":"BSB",
"homeText":"FFFFFF",
"homeMain":"009C3B",
"homeSecondary":"FFDF00",
"awayText":"009C3B",
"awayMain":"FFFFFF",
"awaySecondary":"FFDF00"},
{"city":"Goiânia",
"mascot":"Sertanejos",
"short":"GOI",
"homeText":"FFFFFF",
"homeMain":"009C3B",
"homeSecondary":"FFDF00",
"awayText":"009C3B",
"awayMain":"FFFFFF",
"awaySecondary":"FFDF00"},
{"city":"Campo Grande",
"mascot":"Alligators",
"short":"CGR",
"homeText":"FFFFFF",
"homeMain":"009C3B",
"homeSecondary":"FFDF00",
"awayText":"009C3B",
"awayMain":"FFFFFF",
"awaySecondary":"FFDF00"},
{"city":"Manaus",
"mascot":"Manatees",
"short":"MAN",
"homeText":"FFFFFF",
"homeMain":"FB4F14",
"homeSecondary":"5DFFFD",
"awayText":"FB4F14",
"awayMain":"FFFFFF",
"awaySecondary":"5DFFFD"},
{"city":"Belém",
"mascot":"Forest Rangers",
"short":"BEL",
"homeText":"000000",
"homeMain":"59A518",
"homeSecondary":"FF0000",
"awayText":"59A518",
"awayMain":"FFFFFF",
"awaySecondary":"FF0000"},
{"city":"Maranhão",
"mascot":"Space Rockets",
"short":"MA",
"homeText":"FFF800",
"homeMain":"0085CA",
"homeSecondary":"000000",
"awayText":"0085CA",
"awayMain":"FFFFFF",
"awaySecondary":"000000"},
{"city":"Teresina",
"mascot":"Cangaceiros",
"short":"TER",
"homeText":"FFFFFF",
"homeMain":"A52A2A",
"homeSecondary":"C2B280",
"awayText":"A52A2A",
"awayMain":"FFFFFF",
"awaySecondary":"C2B280"},
{"city":"Belo Horizonte",
"mascot":"Miners",
"short":"BH",
"homeText":"000000",
"homeMain":"D3BC8D",
"homeSecondary":"A19D94",
"awayText":"D3BC8D",
"awayMain":"FFFFFF",
"awaySecondary":"A19D94"},
{"city":"Brasília",
"mascot":"Nationals",
"short":"BSB",
"homeText":"FFFFFF",
"homeMain":"009C3B",
"homeSecondary":"FFDF00",
"awayText":"009C3B",
"awayMain":"FFFFFF",
"awaySecondary":"FFDF00"},
{"city":"Goiânia",
"mascot":"Sertanejos",
"short":"GOI",
"homeText":"FFFFFF",
"homeMain":"009C3B",
"homeSecondary":"FFDF00",
"awayText":"009C3B",
"awayMain":"FFFFFF",
"awaySecondary":"FFDF00"},
{"city":"Campo Grande",
"mascot":"Alligators",
"short":"CGR",
"homeText":"FFFFFF",
"homeMain":"009C3B",
"homeSecondary":"FFDF00",
"awayText":"009C3B",
"awayMain":"FFFFFF",
"awaySecondary":"FFDF00"},
{"city":"Manaus",
"mascot":"Manatees",
"short":"MAN",
"homeText":"FFFFFF",
"homeMain":"FB4F14",
"homeSecondary":"5DFFFD",
"awayText":"FB4F14",
"awayMain":"FFFFFF",
"awaySecondary":"5DFFFD"},
{"city":"Belém",
"mascot":"Forest Rangers",
"short":"BEL",
"homeText":"000000",
"homeMain":"59A518",
"homeSecondary":"FF0000",
"awayText":"59A518",
"awayMain":"FFFFFF",
"awaySecondary":"FF0000"},
{"city":"Maranhão",
"mascot":"Space Rockets",
"short":"MA",
"homeText":"FFF800",
"homeMain":"0085CA",
"homeSecondary":"000000",
"awayText":"0085CA",
"awayMain":"FFFFFF",
"awaySecondary":"000000"},
{"city":"Teresina",
"mascot":"Cangaceiros",
"short":"TER",
"homeText":"FFFFFF",
"homeMain":"A52A2A",
"homeSecondary":"C2B280",
"awayText":"A52A2A",
"awayMain":"FFFFFF",
"awaySecondary":"C2B280"},
{"city":"Belo Horizonte",
"mascot":"Miners",
"short":"BH",
"homeText":"000000",
"homeMain":"D3BC8D",
"homeSecondary":"A19D94",
"awayText":"D3BC8D",
"awayMain":"FFFFFF",
"awaySecondary":"A19D94"},
{"city":"Brasília",
"mascot":"Nationals",
"short":"BSB",
"homeText":"FFFFFF",
"homeMain":"009C3B",
"homeSecondary":"FFDF00",
"awayText":"009C3B",
"awayMain":"FFFFFF",
"awaySecondary":"FFDF00"},
{"city":"Goiânia",
"mascot":"Sertanejos",
"short":"GOI",
"homeText":"FFFFFF",
"homeMain":"009C3B",
"homeSecondary":"FFDF00",
"awayText":"009C3B",
"awayMain":"FFFFFF",
"awaySecondary":"FFDF00"},
{"city":"Campo Grande",
"mascot":"Alligators",
"short":"CGR",
"homeText":"FFFFFF",
"homeMain":"009C3B",
"homeSecondary":"FFDF00",
"awayText":"009C3B",
"awayMain":"FFFFFF",
"awaySecondary":"FFDF00"},
{"city":"Manaus",
"mascot":"Manatees",
"short":"MAN",
"homeText":"FFFFFF",
"homeMain":"FB4F14",
"homeSecondary":"5DFFFD",
"awayText":"FB4F14",
"awayMain":"FFFFFF",
"awaySecondary":"5DFFFD"},
{"city":"Belém",
"mascot":"Forest Rangers",
"short":"BEL",
"homeText":"000000",
"homeMain":"59A518",
"homeSecondary":"FF0000",
"awayText":"59A518",
"awayMain":"FFFFFF",
"awaySecondary":"FF0000"},
{"city":"Maranhão",
"mascot":"Space Rockets",
"short":"MA",
"homeText":"FFF800",
"homeMain":"0085CA",
"homeSecondary":"000000",
"awayText":"0085CA",
"awayMain":"FFFFFF",
"awaySecondary":"000000"},
{"city":"Teresina",
"mascot":"Cangaceiros",
"short":"TER",
"homeText":"FFFFFF",
"homeMain":"A52A2A",
"homeSecondary":"C2B280",
"awayText":"A52A2A",
"awayMain":"FFFFFF",
"awaySecondary":"C2B280"},
{"city":"Belo Horizonte",
"mascot":"Miners",
"short":"BH",
"homeText":"000000",
"homeMain":"D3BC8D",
"homeSecondary":"A19D94",
"awayText":"D3BC8D",
"awayMain":"FFFFFF",
"awaySecondary":"A19D94"},
{"city":"Brasília",
"mascot":"Nationals",
"short":"BSB",
"homeText":"FFFFFF",
"homeMain":"009C3B",
"homeSecondary":"FFDF00",
"awayText":"009C3B",
"awayMain":"FFFFFF",
"awaySecondary":"FFDF00"},
{"city":"Goiânia",
"mascot":"Sertanejos",
"short":"GOI",
"homeText":"FFFFFF",
"homeMain":"009C3B",
"homeSecondary":"FFDF00",
"awayText":"009C3B",
"awayMain":"FFFFFF",
"awaySecondary":"FFDF00"},
{"city":"Campo Grande",
"mascot":"Alligators",
"short":"CGR",
"homeText":"FFFFFF",
"homeMain":"009C3B",
"homeSecondary":"FFDF00",
"awayText":"009C3B",
"awayMain":"FFFFFF",
"awaySecondary":"FFDF00"}]